VerilogCam_project/modules/fsm/obj_dir/waveform.vcd
$version Generated by VerilatedVcd $end
$timescale 1ps $end
 $scope module TOP $end
  $scope module debounce_tb $end
   $var wire 1 # clk $end
   $var wire 1 $ button $end
   $var wire 1 % button_pressed $end
   $scope module dut $end
    $var wire 32 * DELAY_COUNTS [31:0] $end
    $var wire 1 # clk $end
    $var wire 1 $ button $end
    $var wire 1 % button_pressed $end
    $var wire 1 & button_sync $end
    $var wire 1 ' prev_button $end
    $var wire 12 ( count [11:0] $end
    $scope module button_synchroniser $end
     $var wire 1 # clk $end
     $var wire 1 $ x $end
     $var wire 1 & y $end
     $var wire 1 ) x_q0 $end
     $var wire 1 & x_q1 $end
    $upscope $end
   $upscope $end
  $upscope $end
 $upscope $end
$enddefinitions $end


#0
0#
0$
0%
0&
0'
b000000000000 (
0)
b00000000000000000000100111000100 *
#10
1#
b000000000001 (
#20
0#
#30
1#
b000000000010 (
#40
0#
#50
1#
b000000000011 (
#60
0#
#70
1#
b000000000100 (
#80
0#
#90
1#
b000000000101 (
#100
0#
1$
#110
1#
b000000000110 (
1)
#120
0#
#130
1#
1&
b000000000111 (
#140
0#
#150
1#
0$
1'
b000000000000 (
0)
#160
0#
#170
1#
0&
b000000000001 (
#180
0#
#190
1#
0'
b000000000000 (
#200
0#
1$
#210
1#
b000000000001 (
1)
#220
0#
#230
1#
1&
b000000000010 (
#240
0#
#250
1#
1'
b000000000000 (
#260
0#
#270
1#
b000000000001 (
#280
0#
#290
1#
b000000000010 (
#300
0#
#310
1#
b000000000011 (
#320
0#
#330
1#
b000000000100 (
#340
0#
#350
1#
b000000000101 (
#360
0#
#370
1#
b000000000110 (
#380
0#
#390
1#
b000000000111 (
#400
0#
#410
1#
b000000001000 (
#420
0#
#430
1#
b000000001001 (
#440
0#
#450
1#
b000000001010 (
#460
0#
#470
1#
b000000001011 (
#480
0#
#490
1#
b000000001100 (
#500
0#
#510
1#
b000000001101 (
#520
0#
#530
1#
b000000001110 (
#540
0#
#550
1#
b000000001111 (
#560
0#
#570
1#
b000000010000 (
#580
0#
#590
1#
b000000010001 (
#600
0#
#610
1#
b000000010010 (
#620
0#
#630
1#
b000000010011 (
#640
0#
#650
1#
b000000010100 (
#660
0#
#670
1#
b000000010101 (
#680
0#
#690
1#
b000000010110 (
#700
0#
#710
1#
b000000010111 (
#720
0#
#730
1#
b000000011000 (
#740
0#
#750
1#
b000000011001 (
#760
0#
#770
1#
b000000011010 (
#780
0#
#790
1#
b000000011011 (
#800
0#
#810
1#
b000000011100 (
#820
0#
#830
1#
b000000011101 (
#840
0#
#850
1#
b000000011110 (
#860
0#
#870
1#
b000000011111 (
#880
0#
#890
1#
b000000100000 (
#900
0#
#910
1#
b000000100001 (
#920
0#
#930
1#
b000000100010 (
#940
0#
#950
1#
b000000100011 (
#960
0#
#970
1#
b000000100100 (
#980
0#
#990
1#
b000000100101 (
#1000
0#
#1010
1#
b000000100110 (
#1020
0#
#1030
1#
b000000100111 (
#1040
0#
#1050
1#
b000000101000 (
#1060
0#
#1070
1#
b000000101001 (
#1080
0#
#1090
1#
b000000101010 (
#1100
0#
#1110
1#
b000000101011 (
#1120
0#
#1130
1#
b000000101100 (
#1140
0#
#1150
1#
b000000101101 (
#1160
0#
#1170
1#
b000000101110 (
#1180
0#
#1190
1#
b000000101111 (
#1200
0#
#1210
1#
b000000110000 (
#1220
0#
#1230
1#
b000000110001 (
#1240
0#
#1250
1#
b000000110010 (
#1260
0#
#1270
1#
b000000110011 (
#1280
0#
#1290
1#
b000000110100 (
#1300
0#
#1310
1#
b000000110101 (
#1320
0#
#1330
1#
b000000110110 (
#1340
0#
#1350
1#
b000000110111 (
#1360
0#
#1370
1#
b000000111000 (
#1380
0#
#1390
1#
b000000111001 (
#1400
0#
#1410
1#
b000000111010 (
#1420
0#
#1430
1#
b000000111011 (
#1440
0#
#1450
1#
b000000111100 (
#1460
0#
#1470
1#
b000000111101 (
#1480
0#
#1490
1#
b000000111110 (
#1500
0#
#1510
1#
b000000111111 (
#1520
0#
#1530
1#
b000001000000 (
#1540
0#
#1550
1#
b000001000001 (
#1560
0#
#1570
1#
b000001000010 (
#1580
0#
#1590
1#
b000001000011 (
#1600
0#
#1610
1#
b000001000100 (
#1620
0#
#1630
1#
b000001000101 (
#1640
0#
#1650
1#
b000001000110 (
#1660
0#
#1670
1#
b000001000111 (
#1680
0#
#1690
1#
b000001001000 (
#1700
0#
#1710
1#
b000001001001 (
#1720
0#
#1730
1#
b000001001010 (
#1740
0#
#1750
1#
b000001001011 (
#1760
0#
#1770
1#
b000001001100 (
#1780
0#
#1790
1#
b000001001101 (
#1800
0#
#1810
1#
b000001001110 (
#1820
0#
#1830
1#
b000001001111 (
#1840
0#
#1850
1#
b000001010000 (
#1860
0#
#1870
1#
b000001010001 (
#1880
0#
#1890
1#
b000001010010 (
#1900
0#
#1910
1#
b000001010011 (
#1920
0#
#1930
1#
b000001010100 (
#1940
0#
#1950
1#
b000001010101 (
#1960
0#
#1970
1#
b000001010110 (
#1980
0#
#1990
1#
b000001010111 (
#2000
0#
#2010
1#
b000001011000 (
#2020
0#
#2030
1#
b000001011001 (
#2040
0#
#2050
1#
b000001011010 (
#2060
0#
#2070
1#
b000001011011 (
#2080
0#
#2090
1#
b000001011100 (
#2100
0#
#2110
1#
b000001011101 (
#2120
0#
#2130
1#
b000001011110 (
#2140
0#
#2150
1#
b000001011111 (
#2160
0#
#2170
1#
b000001100000 (
#2180
0#
#2190
1#
b000001100001 (
#2200
0#
#2210
1#
b000001100010 (
#2220
0#
#2230
1#
b000001100011 (
#2240
0#
#2250
1#
b000001100100 (
#2260
0#
#2270
1#
b000001100101 (
#2280
0#
#2290
1#
b000001100110 (
#2300
0#
#2310
1#
b000001100111 (
#2320
0#
#2330
1#
b000001101000 (
#2340
0#
#2350
1#
b000001101001 (
#2360
0#
#2370
1#
b000001101010 (
#2380
0#
#2390
1#
b000001101011 (
#2400
0#
#2410
1#
b000001101100 (
#2420
0#
#2430
1#
b000001101101 (
#2440
0#
#2450
1#
b000001101110 (
#2460
0#
#2470
1#
b000001101111 (
#2480
0#
#2490
1#
b000001110000 (
#2500
0#
#2510
1#
b000001110001 (
#2520
0#
#2530
1#
b000001110010 (
#2540
0#
#2550
1#
b000001110011 (
#2560
0#
#2570
1#
b000001110100 (
#2580
0#
#2590
1#
b000001110101 (
#2600
0#
#2610
1#
b000001110110 (
#2620
0#
#2630
1#
b000001110111 (
#2640
0#
#2650
1#
b000001111000 (
#2660
0#
#2670
1#
b000001111001 (
#2680
0#
#2690
1#
b000001111010 (
#2700
0#
#2710
1#
b000001111011 (
#2720
0#
#2730
1#
b000001111100 (
#2740
0#
#2750
1#
b000001111101 (
#2760
0#
#2770
1#
b000001111110 (
#2780
0#
#2790
1#
b000001111111 (
#2800
0#
#2810
1#
b000010000000 (
#2820
0#
#2830
1#
b000010000001 (
#2840
0#
#2850
1#
b000010000010 (
#2860
0#
#2870
1#
b000010000011 (
#2880
0#
#2890
1#
b000010000100 (
#2900
0#
#2910
1#
b000010000101 (
#2920
0#
#2930
1#
b000010000110 (
#2940
0#
#2950
1#
b000010000111 (
#2960
0#
#2970
1#
b000010001000 (
#2980
0#
#2990
1#
b000010001001 (
#3000
0#
#3010
1#
b000010001010 (
#3020
0#
#3030
1#
b000010001011 (
#3040
0#
#3050
1#
b000010001100 (
#3060
0#
#3070
1#
b000010001101 (
#3080
0#
#3090
1#
b000010001110 (
#3100
0#
#3110
1#
b000010001111 (
#3120
0#
#3130
1#
b000010010000 (
#3140
0#
#3150
1#
b000010010001 (
#3160
0#
#3170
1#
b000010010010 (
#3180
0#
#3190
1#
b000010010011 (
#3200
0#
#3210
1#
b000010010100 (
#3220
0#
#3230
1#
b000010010101 (
#3240
0#
#3250
1#
b000010010110 (
#3260
0#
#3270
1#
b000010010111 (
#3280
0#
#3290
1#
b000010011000 (
#3300
0#
#3310
1#
b000010011001 (
#3320
0#
#3330
1#
b000010011010 (
#3340
0#
#3350
1#
b000010011011 (
#3360
0#
#3370
1#
b000010011100 (
#3380
0#
#3390
1#
b000010011101 (
#3400
0#
#3410
1#
b000010011110 (
#3420
0#
#3430
1#
b000010011111 (
#3440
0#
#3450
1#
b000010100000 (
#3460
0#
#3470
1#
b000010100001 (
#3480
0#
#3490
1#
b000010100010 (
#3500
0#
#3510
1#
b000010100011 (
#3520
0#
#3530
1#
b000010100100 (
#3540
0#
#3550
1#
b000010100101 (
#3560
0#
#3570
1#
b000010100110 (
#3580
0#
#3590
1#
b000010100111 (
#3600
0#
#3610
1#
b000010101000 (
#3620
0#
#3630
1#
b000010101001 (
#3640
0#
#3650
1#
b000010101010 (
#3660
0#
#3670
1#
b000010101011 (
#3680
0#
#3690
1#
b000010101100 (
#3700
0#
#3710
1#
b000010101101 (
#3720
0#
#3730
1#
b000010101110 (
#3740
0#
#3750
1#
b000010101111 (
#3760
0#
#3770
1#
b000010110000 (
#3780
0#
#3790
1#
b000010110001 (
#3800
0#
#3810
1#
b000010110010 (
#3820
0#
#3830
1#
b000010110011 (
#3840
0#
#3850
1#
b000010110100 (
#3860
0#
#3870
1#
b000010110101 (
#3880
0#
#3890
1#
b000010110110 (
#3900
0#
#3910
1#
b000010110111 (
#3920
0#
#3930
1#
b000010111000 (
#3940
0#
#3950
1#
b000010111001 (
#3960
0#
#3970
1#
b000010111010 (
#3980
0#
#3990
1#
b000010111011 (
#4000
0#
#4010
1#
b000010111100 (
#4020
0#
#4030
1#
b000010111101 (
#4040
0#
#4050
1#
b000010111110 (
#4060
0#
#4070
1#
b000010111111 (
#4080
0#
#4090
1#
b000011000000 (
#4100
0#
#4110
1#
b000011000001 (
#4120
0#
#4130
1#
b000011000010 (
#4140
0#
#4150
1#
b000011000011 (
#4160
0#
#4170
1#
b000011000100 (
#4180
0#
#4190
1#
b000011000101 (
#4200
0#
#4210
1#
b000011000110 (
#4220
0#
#4230
1#
b000011000111 (
#4240
0#
#4250
1#
b000011001000 (
#4260
0#
#4270
1#
b000011001001 (
#4280
0#
#4290
1#
b000011001010 (
#4300
0#
#4310
1#
b000011001011 (
#4320
0#
#4330
1#
b000011001100 (
#4340
0#
#4350
1#
b000011001101 (
#4360
0#
#4370
1#
b000011001110 (
#4380
0#
#4390
1#
b000011001111 (
#4400
0#
#4410
1#
b000011010000 (
#4420
0#
#4430
1#
b000011010001 (
#4440
0#
#4450
1#
b000011010010 (
#4460
0#
#4470
1#
b000011010011 (
#4480
0#
#4490
1#
b000011010100 (
#4500
0#
#4510
1#
b000011010101 (
#4520
0#
#4530
1#
b000011010110 (
#4540
0#
#4550
1#
b000011010111 (
#4560
0#
#4570
1#
b000011011000 (
#4580
0#
#4590
1#
b000011011001 (
#4600
0#
#4610
1#
b000011011010 (
#4620
0#
#4630
1#
b000011011011 (
#4640
0#
#4650
1#
b000011011100 (
#4660
0#
#4670
1#
b000011011101 (
#4680
0#
#4690
1#
b000011011110 (
#4700
0#
#4710
1#
b000011011111 (
#4720
0#
#4730
1#
b000011100000 (
#4740
0#
#4750
1#
b000011100001 (
#4760
0#
#4770
1#
b000011100010 (
#4780
0#
#4790
1#
b000011100011 (
#4800
0#
#4810
1#
b000011100100 (
#4820
0#
#4830
1#
b000011100101 (
#4840
0#
#4850
1#
b000011100110 (
#4860
0#
#4870
1#
b000011100111 (
#4880
0#
#4890
1#
b000011101000 (
#4900
0#
#4910
1#
b000011101001 (
#4920
0#
#4930
1#
b000011101010 (
#4940
0#
#4950
1#
b000011101011 (
#4960
0#
#4970
1#
b000011101100 (
#4980
0#
#4990
1#
b000011101101 (
#5000
0#
#5010
1#
b000011101110 (
#5020
0#
#5030
1#
b000011101111 (
#5040
0#
#5050
1#
b000011110000 (
#5060
0#
#5070
1#
b000011110001 (
#5080
0#
#5090
1#
b000011110010 (
#5100
0#
#5110
1#
b000011110011 (
#5120
0#
#5130
1#
b000011110100 (
#5140
0#
#5150
1#
b000011110101 (
#5160
0#
#5170
1#
b000011110110 (
#5180
0#
#5190
1#
b000011110111 (
#5200
0#
#5210
1#
b000011111000 (
#5220
0#
#5230
1#
b000011111001 (
#5240
0#
#5250
1#
b000011111010 (
#5260
0#
#5270
1#
b000011111011 (
#5280
0#
#5290
1#
b000011111100 (
#5300
0#
#5310
1#
b000011111101 (
#5320
0#
#5330
1#
b000011111110 (
#5340
0#
#5350
1#
0$
b000011111111 (
0)
#5360
0#
#5370
1#
0&
b000100000000 (
#5380
0#
#5390
1#
0'
b000000000000 (
#5400
0#
1$
#5410
1#
b000000000001 (
1)
#5420
0#
#5430
1#
1&
b000000000010 (
#5440
0#
#5450
1#
0$
1'
b000000000000 (
0)
#5460
0#
#5470
1#
0&
b000000000001 (
#5480
0#
#5490
1#
0'
b000000000000 (
#5500
0#
#5510
1#
b000000000001 (
#5520
0#
#5530
1#
b000000000010 (
#5540
0#
#5550
1#
b000000000011 (
#5560
0#
#5570
1#
b000000000100 (
#5580
0#
#5590
1#
b000000000101 (
#5600
0#
#5610
1#
b000000000110 (
#5620
0#
#5630
1#
b000000000111 (
#5640
0#
#5650
1#
b000000001000 (
#5660
0#
#5670
1#
b000000001001 (
#5680
0#
#5690
1#
b000000001010 (
#5700
0#
#5710
1#
b000000001011 (
#5720
0#
#5730
1#
b000000001100 (
#5740
0#
#5750
1#
b000000001101 (
#5760
0#
#5770
1#
b000000001110 (
#5780
0#
#5790
1#
b000000001111 (
#5800
0#
#5810
1#
b000000010000 (
#5820
0#
#5830
1#
b000000010001 (
#5840
0#
#5850
1#
b000000010010 (
#5860
0#
#5870
1#
b000000010011 (
#5880
0#
#5890
1#
b000000010100 (
#5900
0#
#5910
1#
b000000010101 (
#5920
0#
#5930
1#
b000000010110 (
#5940
0#
#5950
1#
b000000010111 (
#5960
0#
#5970
1#
b000000011000 (
#5980
0#
#5990
1#
b000000011001 (
#6000
0#
#6010
1#
b000000011010 (
#6020
0#
#6030
1#
b000000011011 (
#6040
0#
#6050
1#
b000000011100 (
#6060
0#
#6070
1#
b000000011101 (
#6080
0#
#6090
1#
b000000011110 (
#6100
0#
#6110
1#
b000000011111 (
#6120
0#
#6130
1#
b000000100000 (
#6140
0#
#6150
1#
b000000100001 (
#6160
0#
#6170
1#
b000000100010 (
#6180
0#
#6190
1#
b000000100011 (
#6200
0#
#6210
1#
b000000100100 (
#6220
0#
#6230
1#
b000000100101 (
#6240
0#
#6250
1#
b000000100110 (
#6260
0#
#6270
1#
b000000100111 (
#6280
0#
#6290
1#
b000000101000 (
#6300
0#
#6310
1#
b000000101001 (
#6320
0#
#6330
1#
b000000101010 (
#6340
0#
#6350
1#
b000000101011 (
#6360
0#
#6370
1#
b000000101100 (
#6380
0#
#6390
1#
b000000101101 (
#6400
0#
#6410
1#
b000000101110 (
#6420
0#
#6430
1#
b000000101111 (
#6440
0#
#6450
1#
b000000110000 (
#6460
0#
#6470
1#
b000000110001 (
#6480
0#
#6490
1#
b000000110010 (
#6500
0#
#6510
1#
b000000110011 (
#6520
0#
#6530
1#
b000000110100 (
#6540
0#
#6550
1#
b000000110101 (
#6560
0#
#6570
1#
b000000110110 (
#6580
0#
#6590
1#
b000000110111 (
#6600
0#
#6610
1#
b000000111000 (
#6620
0#
#6630
1#
b000000111001 (
#6640
0#
#6650
1#
b000000111010 (
#6660
0#
#6670
1#
b000000111011 (
#6680
0#
#6690
1#
b000000111100 (
#6700
0#
#6710
1#
b000000111101 (
#6720
0#
#6730
1#
b000000111110 (
#6740
0#
#6750
1#
b000000111111 (
#6760
0#
#6770
1#
b000001000000 (
#6780
0#
#6790
1#
b000001000001 (
#6800
0#
#6810
1#
b000001000010 (
#6820
0#
#6830
1#
b000001000011 (
#6840
0#
#6850
1#
b000001000100 (
#6860
0#
#6870
1#
b000001000101 (
#6880
0#
#6890
1#
b000001000110 (
#6900
0#
#6910
1#
b000001000111 (
#6920
0#
#6930
1#
b000001001000 (
#6940
0#
#6950
1#
b000001001001 (
#6960
0#
#6970
1#
b000001001010 (
#6980
0#
#6990
1#
b000001001011 (
#7000
0#
#7010
1#
b000001001100 (
#7020
0#
#7030
1#
b000001001101 (
#7040
0#
#7050
1#
b000001001110 (
#7060
0#
#7070
1#
b000001001111 (
#7080
0#
#7090
1#
b000001010000 (
#7100
0#
#7110
1#
b000001010001 (
#7120
0#
#7130
1#
b000001010010 (
#7140
0#
#7150
1#
b000001010011 (
#7160
0#
#7170
1#
b000001010100 (
#7180
0#
#7190
1#
b000001010101 (
#7200
0#
#7210
1#
b000001010110 (
#7220
0#
#7230
1#
b000001010111 (
#7240
0#
#7250
1#
b000001011000 (
#7260
0#
#7270
1#
b000001011001 (
#7280
0#
#7290
1#
b000001011010 (
#7300
0#
#7310
1#
b000001011011 (
#7320
0#
#7330
1#
b000001011100 (
#7340
0#
#7350
1#
b000001011101 (
#7360
0#
#7370
1#
b000001011110 (
#7380
0#
#7390
1#
b000001011111 (
#7400
0#
#7410
1#
b000001100000 (
#7420
0#
#7430
1#
b000001100001 (
#7440
0#
#7450
1#
b000001100010 (
#7460
0#
#7470
1#
b000001100011 (
#7480
0#
#7490
1#
b000001100100 (
#7500
0#
#7510
1#
b000001100101 (
#7520
0#
#7530
1#
b000001100110 (
#7540
0#
#7550
1#
b000001100111 (
#7560
0#
#7570
1#
b000001101000 (
#7580
0#
#7590
1#
b000001101001 (
#7600
0#
#7610
1#
b000001101010 (
#7620
0#
#7630
1#
b000001101011 (
#7640
0#
#7650
1#
b000001101100 (
#7660
0#
#7670
1#
b000001101101 (
#7680
0#
#7690
1#
b000001101110 (
#7700
0#
#7710
1#
b000001101111 (
#7720
0#
#7730
1#
b000001110000 (
#7740
0#
#7750
1#
b000001110001 (
#7760
0#
#7770
1#
b000001110010 (
#7780
0#
#7790
1#
b000001110011 (
#7800
0#
#7810
1#
b000001110100 (
#7820
0#
#7830
1#
b000001110101 (
#7840
0#
#7850
1#
b000001110110 (
#7860
0#
#7870
1#
b000001110111 (
#7880
0#
#7890
1#
b000001111000 (
#7900
0#
#7910
1#
b000001111001 (
#7920
0#
#7930
1#
b000001111010 (
#7940
0#
#7950
1#
b000001111011 (
#7960
0#
#7970
1#
b000001111100 (
#7980
0#
#7990
1#
b000001111101 (
#8000
0#
#8010
1#
b000001111110 (
#8020
0#
#8030
1#
b000001111111 (
#8040
0#
#8050
1#
b000010000000 (
#8060
0#
#8070
1#
b000010000001 (
#8080
0#
#8090
1#
b000010000010 (
#8100
0#
#8110
1#
b000010000011 (
#8120
0#
#8130
1#
b000010000100 (
#8140
0#
#8150
1#
b000010000101 (
#8160
0#
#8170
1#
b000010000110 (
#8180
0#
#8190
1#
b000010000111 (
#8200
0#
#8210
1#
b000010001000 (
#8220
0#
#8230
1#
b000010001001 (
#8240
0#
#8250
1#
b000010001010 (
#8260
0#
#8270
1#
b000010001011 (
#8280
0#
#8290
1#
b000010001100 (
#8300
0#
#8310
1#
b000010001101 (
#8320
0#
#8330
1#
b000010001110 (
#8340
0#
#8350
1#
b000010001111 (
#8360
0#
#8370
1#
b000010010000 (
#8380
0#
#8390
1#
b000010010001 (
#8400
0#
#8410
1#
b000010010010 (
#8420
0#
#8430
1#
b000010010011 (
#8440
0#
#8450
1#
b000010010100 (
#8460
0#
#8470
1#
b000010010101 (
#8480
0#
#8490
1#
b000010010110 (
#8500
0#
#8510
1#
b000010010111 (
#8520
0#
#8530
1#
b000010011000 (
#8540
0#
#8550
1#
b000010011001 (
#8560
0#
#8570
1#
b000010011010 (
#8580
0#
#8590
1#
b000010011011 (
#8600
0#
#8610
1#
b000010011100 (
#8620
0#
#8630
1#
b000010011101 (
#8640
0#
#8650
1#
b000010011110 (
#8660
0#
#8670
1#
b000010011111 (
#8680
0#
#8690
1#
b000010100000 (
#8700
0#
#8710
1#
b000010100001 (
#8720
0#
#8730
1#
b000010100010 (
#8740
0#
#8750
1#
b000010100011 (
#8760
0#
#8770
1#
b000010100100 (
#8780
0#
#8790
1#
b000010100101 (
#8800
0#
#8810
1#
b000010100110 (
#8820
0#
#8830
1#
b000010100111 (
#8840
0#
#8850
1#
b000010101000 (
#8860
0#
#8870
1#
b000010101001 (
#8880
0#
#8890
1#
b000010101010 (
#8900
0#
#8910
1#
b000010101011 (
#8920
0#
#8930
1#
b000010101100 (
#8940
0#
#8950
1#
b000010101101 (
#8960
0#
#8970
1#
b000010101110 (
#8980
0#
#8990
1#
b000010101111 (
#9000
0#
#9010
1#
b000010110000 (
#9020
0#
#9030
1#
b000010110001 (
#9040
0#
#9050
1#
b000010110010 (
#9060
0#
#9070
1#
b000010110011 (
#9080
0#
#9090
1#
b000010110100 (
#9100
0#
#9110
1#
b000010110101 (
#9120
0#
#9130
1#
b000010110110 (
#9140
0#
#9150
1#
b000010110111 (
#9160
0#
#9170
1#
b000010111000 (
#9180
0#
#9190
1#
b000010111001 (
#9200
0#
#9210
1#
b000010111010 (
#9220
0#
#9230
1#
b000010111011 (
#9240
0#
#9250
1#
b000010111100 (
#9260
0#
#9270
1#
b000010111101 (
#9280
0#
#9290
1#
b000010111110 (
#9300
0#
#9310
1#
b000010111111 (
#9320
0#
#9330
1#
b000011000000 (
#9340
0#
#9350
1#
b000011000001 (
#9360
0#
#9370
1#
b000011000010 (
#9380
0#
#9390
1#
b000011000011 (
#9400
0#
#9410
1#
b000011000100 (
#9420
0#
#9430
1#
b000011000101 (
#9440
0#
#9450
1#
b000011000110 (
#9460
0#
#9470
1#
b000011000111 (
#9480
0#
#9490
1#
b000011001000 (
#9500
0#
#9510
1#
b000011001001 (
#9520
0#
#9530
1#
b000011001010 (
#9540
0#
#9550
1#
b000011001011 (
#9560
0#
#9570
1#
b000011001100 (
#9580
0#
#9590
1#
b000011001101 (
#9600
0#
#9610
1#
b000011001110 (
#9620
0#
#9630
1#
b000011001111 (
#9640
0#
#9650
1#
b000011010000 (
#9660
0#
#9670
1#
b000011010001 (
#9680
0#
#9690
1#
b000011010010 (
#9700
0#
#9710
1#
b000011010011 (
#9720
0#
#9730
1#
b000011010100 (
#9740
0#
#9750
1#
b000011010101 (
#9760
0#
#9770
1#
b000011010110 (
#9780
0#
#9790
1#
b000011010111 (
#9800
0#
#9810
1#
b000011011000 (
#9820
0#
#9830
1#
b000011011001 (
#9840
0#
#9850
1#
b000011011010 (
#9860
0#
#9870
1#
b000011011011 (
#9880
0#
#9890
1#
b000011011100 (
#9900
0#
#9910
1#
b000011011101 (
#9920
0#
#9930
1#
b000011011110 (
#9940
0#
#9950
1#
b000011011111 (
#9960
0#
#9970
1#
b000011100000 (
#9980
0#
#9990
1#
b000011100001 (
#10000
0#
#10010
1#
b000011100010 (
#10020
0#
#10030
1#
b000011100011 (
#10040
0#
#10050
1#
b000011100100 (
#10060
0#
#10070
1#
b000011100101 (
#10080
0#
#10090
1#
b000011100110 (
#10100
0#
#10110
1#
b000011100111 (
#10120
0#
#10130
1#
b000011101000 (
#10140
0#
#10150
1#
b000011101001 (
#10160
0#
#10170
1#
b000011101010 (
#10180
0#
#10190
1#
b000011101011 (
#10200
0#
#10210
1#
b000011101100 (
#10220
0#
#10230
1#
b000011101101 (
#10240
0#
#10250
1#
b000011101110 (
#10260
0#
#10270
1#
b000011101111 (
#10280
0#
#10290
1#
b000011110000 (
#10300
0#
#10310
1#
b000011110001 (
#10320
0#
#10330
1#
b000011110010 (
#10340
0#
#10350
1#
b000011110011 (
#10360
0#
#10370
1#
b000011110100 (
#10380
0#
#10390
1#
b000011110101 (
#10400
0#
#10410
1#
b000011110110 (
#10420
0#
#10430
1#
b000011110111 (
#10440
0#
#10450
1#
b000011111000 (
#10460
0#
#10470
1#
b000011111001 (
#10480
0#
#10490
1#
b000011111010 (
#10500
0#
#10510
1#
b000011111011 (
#10520
0#
#10530
1#
b000011111100 (
#10540
0#
#10550
1#
b000011111101 (
#10560
0#
#10570
1#
b000011111110 (
#10580
0#
#10590
1#
b000011111111 (
#10600
0#
#10610
1#
b000100000000 (
#10620
0#
#10630
1#
b000100000001 (
#10640
0#
#10650
1#
b000100000010 (
#10660
0#
#10670
1#
b000100000011 (
#10680
0#
#10690
1#
b000100000100 (
#10700
0#
#10710
1#
b000100000101 (
#10720
0#
#10730
1#
b000100000110 (
#10740
0#
#10750
1#
b000100000111 (
#10760
0#
#10770
1#
b000100001000 (
#10780
0#
#10790
1#
b000100001001 (
#10800
0#
#10810
1#
b000100001010 (
#10820
0#
#10830
1#
b000100001011 (
#10840
0#
#10850
1#
b000100001100 (
#10860
0#
#10870
1#
b000100001101 (
#10880
0#
#10890
1#
b000100001110 (
#10900
0#
#10910
1#
b000100001111 (
#10920
0#
#10930
1#
b000100010000 (
#10940
0#
#10950
1#
b000100010001 (
#10960
0#
#10970
1#
b000100010010 (
#10980
0#
#10990
1#
b000100010011 (
#11000
0#
#11010
1#
b000100010100 (
#11020
0#
#11030
1#
b000100010101 (
#11040
0#
#11050
1#
b000100010110 (
#11060
0#
#11070
1#
b000100010111 (
#11080
0#
#11090
1#
b000100011000 (
#11100
0#
#11110
1#
b000100011001 (
#11120
0#
#11130
1#
b000100011010 (
#11140
0#
#11150
1#
b000100011011 (
#11160
0#
#11170
1#
b000100011100 (
#11180
0#
#11190
1#
b000100011101 (
#11200
0#
#11210
1#
b000100011110 (
#11220
0#
#11230
1#
b000100011111 (
#11240
0#
#11250
1#
b000100100000 (
#11260
0#
#11270
1#
b000100100001 (
#11280
0#
#11290
1#
b000100100010 (
#11300
0#
#11310
1#
b000100100011 (
#11320
0#
#11330
1#
b000100100100 (
#11340
0#
#11350
1#
b000100100101 (
#11360
0#
#11370
1#
b000100100110 (
#11380
0#
#11390
1#
b000100100111 (
#11400
0#
#11410
1#
b000100101000 (
#11420
0#
#11430
1#
b000100101001 (
#11440
0#
#11450
1#
b000100101010 (
